##NIMS MongoDB Queries used

###Get all Urls grouped by url, city & scores summed.
db.news.aggregate({"$group":{"_id":{"url":"$url","city":"$city"}, "likeit":{"$sum":"$likeit"},"meh":{$sum:"$meh"},"hatedit":{$sum:"$hatedit"}}});
